waves/Untitled.vcd
$date
	Mon Jun 17 13:15:35 2024
$end
$version
	GTKWave Analyzer v3.4.0 (w)1999-2022 BSI
$end
$timescale
	1fs
$end
$scope module top $end
$scope module processador_tb $end
$var  1 " pc[6] $end
$var  1 # pc[5] $end
$var  1 $ pc[4] $end
$var  1 % pc[3] $end
$var  1 & pc[2] $end
$var  1 ' pc[1] $end
$var  1 ( pc[0] $end
$var  1 9 reg3[15] $end
$var  1 : reg3[14] $end
$var  1 ; reg3[13] $end
$var  1 < reg3[12] $end
$var  1 = reg3[11] $end
$var  1 > reg3[10] $end
$var  1 ? reg3[9] $end
$var  1 @ reg3[8] $end
$var  1 A reg3[7] $end
$var  1 B reg3[6] $end
$var  1 C reg3[5] $end
$var  1 D reg3[4] $end
$var  1 E reg3[3] $end
$var  1 F reg3[2] $end
$var  1 G reg3[1] $end
$var  1 H reg3[0] $end
$var  1 ) reg5[15] $end
$var  1 * reg5[14] $end
$var  1 + reg5[13] $end
$var  1 , reg5[12] $end
$var  1 - reg5[11] $end
$var  1 . reg5[10] $end
$var  1 / reg5[9] $end
$var  1 0 reg5[8] $end
$var  1 1 reg5[7] $end
$var  1 2 reg5[6] $end
$var  1 3 reg5[5] $end
$var  1 4 reg5[4] $end
$var  1 5 reg5[3] $end
$var  1 6 reg5[2] $end
$var  1 7 reg5[1] $end
$var  1 8 reg5[0] $end
$scope module proc0 $end
$scope module regbank0 $end
$var  1 I reg_out7[15] $end
$var  1 J reg_out7[14] $end
$var  1 K reg_out7[13] $end
$var  1 L reg_out7[12] $end
$var  1 M reg_out7[11] $end
$var  1 N reg_out7[10] $end
$var  1 O reg_out7[9] $end
$var  1 P reg_out7[8] $end
$var  1 Q reg_out7[7] $end
$var  1 R reg_out7[6] $end
$var  1 S reg_out7[5] $end
$var  1 T reg_out7[4] $end
$var  1 U reg_out7[3] $end
$var  1 V reg_out7[2] $end
$var  1 W reg_out7[1] $end
$var  1 X reg_out7[0] $end
$upscope $end
$upscope $end
$upscope $end
$upscope $end
$enddefinitions $end
#0
$dumpvars
0-
0<
05
0#
0D
00
0O
0"
02
0%
03
0A
01
09
0B
06
04
0M
08
0H
0:
0C
07
0J
0&
0K
0E
0I
0;
0F
0N
0L
0?
0U
0$
0,
0G
0/
0P
0R
0'
0S
0)
0Q
0=
0*
0V
0T
0.
0@
0>
0+
0X
0(
0W
$end
#5000000
1(
#11000000
0(
1'
#17000000
1(
#23000000
0(
1&
0'
#29000000
1(
#35000000
0(
1'
#41000000
1(
#47000000
0(
0'
1%
0&
#53000000
1'
0%
#59000000
1(
#65000000
0(
1&
0'
#71000000
1(
#77000000
0(
1'
#83000000
1(
#89000000
0(
0'
1%
0&
#95000000
1'
0%
#101000000
1(
#107000000
0(
1&
0'
#113000000
1(
#119000000
0(
1'
#125000000
1(
#131000000
0(
0'
1%
0&
#137000000
1'
0%
#143000000
1(
#149000000
0(
1&
0'
#155000000
1(
#161000000
0(
1'
#167000000
1(
#173000000
0(
0'
1%
0&
#179000000
1'
0%
#185000000
1(
#191000000
0(
1&
0'
#197000000
1(
#203000000
0(
1'
#209000000
1(
#215000000
0(
0'
1%
0&
#221000000
1'
0%
#227000000
1(
#233000000
0(
1&
0'
#239000000
1(
#245000000
0(
1'
#251000000
1(
#257000000
0(
0'
1%
0&
#263000000
1'
0%
#269000000
1(
#275000000
0(
1&
0'
#281000000
1(
#287000000
0(
1'
#293000000
1(
#299000000
0(
0'
1%
0&
#305000000
1'
0%
#311000000
1(
#317000000
0(
1&
0'
#323000000
1(
#329000000
0(
1'
#335000000
1(
#341000000
0(
0'
1%
0&
#347000000
1'
0%
#353000000
1(
#359000000
0(
1&
0'
#365000000
1(
#371000000
0(
1'
#377000000
1(
#383000000
0(
0'
1%
0&
#389000000
1'
0%
#395000000
1(
#401000000
0(
1&
0'
#407000000
1(
#413000000
0(
1'
#419000000
1(
#425000000
0(
0'
1%
0&
#431000000
1'
0%
#437000000
1(
#443000000
0(
1&
0'
#449000000
1(
#455000000
0(
1'
#461000000
1(
#467000000
0(
0'
1%
0&
#473000000
1'
0%
#479000000
1(
#485000000
0(
1&
0'
#491000000
1(
#497000000
0(
1'
#503000000
1(
#509000000
0(
0'
1%
0&
#515000000
1'
0%
#521000000
1(
#527000000
0(
1&
0'
#533000000
1(
#539000000
0(
1'
#545000000
1(
#551000000
0(
0'
1%
0&
#557000000
1'
0%
#563000000
1(
#569000000
0(
1&
0'
#575000000
1(
#581000000
0(
1'
#587000000
1(
#593000000
0(
0'
1%
0&
#599000000
1'
0%
#605000000
1(
#611000000
0(
1&
0'
#617000000
1(
#623000000
0(
1'
#629000000
1(
#635000000
0(
0'
1%
0&
#641000000
1'
0%
#647000000
1(
#653000000
0(
1&
0'
#659000000
1(
#665000000
0(
1'
#671000000
1(
#677000000
0(
0'
1%
0&
#683000000
1'
0%
#689000000
1(
#695000000
0(
1&
0'
#701000000
1(
#707000000
0(
1'
#713000000
1(
#719000000
0(
0'
1%
0&
#725000000
1'
0%
#731000000
1(
#737000000
0(
1&
0'
#743000000
1(
#749000000
0(
1'
#755000000
1(
#761000000
0(
0'
1%
0&
#767000000
1'
0%
#773000000
1(
#779000000
0(
1&
0'
#785000000
1(
#791000000
0(
1'
#797000000
1(
#803000000
0(
0'
1%
0&
#809000000
1'
0%
#815000000
1(
#821000000
0(
1&
0'
#827000000
1(
#833000000
0(
1'
#839000000
1(
#845000000
0(
0'
1%
0&
#851000000
1'
0%
#857000000
1(
#863000000
0(
1&
0'
#869000000
1(
#875000000
0(
1'
#881000000
1(
#887000000
0(
0'
1%
0&
#893000000
1'
0%
#899000000
1(
#905000000
0(
1&
0'
#911000000
1(
#917000000
0(
1'
#923000000
1(
#929000000
0(
0'
1%
0&
#935000000
1'
0%
#941000000
1(
#947000000
0(
1&
0'
#953000000
1(
#959000000
0(
1'
#965000000
1(
#971000000
0(
0'
1%
0&
#977000000
1'
0%
#983000000
1(
#989000000
0(
1&
0'
#995000000
1(
#1001000000
0(
1'
#1007000000
1(
#1013000000
0(
0'
1%
0&
#1019000000
1'
0%
#1025000000
1(
#1031000000
0(
1&
0'
#1037000000
1(
#1043000000
0(
1'
#1049000000
1(
#1055000000
0(
0'
1%
0&
#1061000000
1'
0%
#1067000000
1(
#1073000000
0(
1&
0'
#1079000000
1(
#1085000000
0(
1'
#1091000000
1(
#1097000000
0(
0'
1%
0&
#1103000000
1'
0%
#1109000000
1(
#1115000000
0(
1&
0'
#1121000000
1(
#1127000000
0(
1'
#1133000000
1(
#1139000000
0(
0'
1%
0&
#1145000000
1'
0%
#1151000000
1(
#1157000000
0(
1&
0'
#1163000000
1(
#1169000000
0(
1'
#1175000000
1(
#1181000000
0(
0'
1%
0&
#1187000000
1'
0%
#1193000000
1(
#1199000000
0(
1&
0'
#1205000000
1(
#1211000000
0(
1'
#1217000000
1(
#1223000000
0(
0'
1%
0&
#1229000000
1'
0%
#1235000000
1(
#1241000000
0(
1&
0'
#1247000000
1(
#1253000000
0(
1'
#1259000000
1(
#1265000000
0(
0'
1%
0&
#1271000000
1'
0%
#1277000000
1(
#1283000000
0(
1&
0'
#1289000000
1(
#1295000000
0(
1'
#1301000000
1(
#1307000000
0(
0'
1%
0&
#1313000000
1(
#1317000000
1W
#1319000000
1'
0(
#1325000000
1(
#1331000000
0(
1&
0'
#1337000000
1(
#1341000000
1G
#1343000000
1'
0(
#1349000000
1(
#1355000000
0(
0'
0&
0%
1$
#1361000000
1(
#1367000000
0(
1'
#1373000000
1(
#1379000000
0(
0'
1&
#1385000000
1(
#1391000000
1'
0$
1%
#1397000000
0%
1$
0'
0(
0&
#1403000000
1(
#1409000000
0(
1'
#1415000000
1(
#1421000000
0(
0'
1&
#1427000000
1(
#1433000000
1'
0$
1%
#1439000000
0%
1$
0'
0(
0&
#1445000000
1(
#1451000000
0(
1'
#1457000000
1(
#1463000000
0(
0'
1&
#1469000000
1(
#1475000000
1'
0$
1%
#1481000000
0%
1$
0'
0(
0&
#1487000000
1(
#1493000000
0(
1'
#1499000000
1(
#1505000000
0(
0'
1&
#1511000000
1(
#1517000000
1'
0$
1%
#1523000000
0%
1$
0'
0(
0&
#1529000000
1(
#1535000000
0(
1'
#1541000000
1(
#1547000000
0(
0'
1&
#1553000000
1(
#1559000000
1'
0$
1%
#1565000000
0%
1$
0'
0(
0&
#1571000000
1(
#1577000000
0(
1'
#1583000000
1(
#1589000000
0(
0'
1&
#1595000000
1(
#1601000000
1'
0$
1%
#1607000000
0%
1$
0'
0(
0&
#1613000000
1(
#1619000000
0(
1'
#1625000000
1(
#1631000000
0(
0'
1&
#1637000000
1(
#1643000000
1'
0$
1%
#1649000000
0%
1$
0'
0(
0&
#1655000000
1(
#1661000000
0(
1'
#1667000000
1(
#1673000000
0(
0'
1&
#1679000000
1(
#1685000000
1'
0$
1%
#1691000000
0%
1$
0'
0(
0&
#1697000000
1(
#1703000000
0(
1'
#1709000000
1(
#1715000000
0(
0'
1&
#1721000000
1(
#1727000000
1'
0$
1%
#1733000000
0%
1$
0'
0(
0&
#1739000000
1(
#1745000000
0(
1'
#1751000000
1(
#1757000000
0(
0'
1&
#1763000000
1(
#1769000000
1'
0$
1%
#1775000000
0%
1$
0'
0(
0&
#1781000000
1(
#1787000000
0(
1'
#1793000000
1(
#1799000000
0(
0'
1&
#1805000000
1(
#1811000000
1'
0$
1%
#1817000000
0%
1$
0'
0(
0&
#1823000000
1(
#1829000000
0(
1'
#1835000000
1(
#1841000000
0(
0'
1&
#1847000000
1(
#1853000000
1'
0$
1%
#1859000000
0%
1$
0'
0(
0&
#1865000000
1(
#1871000000
0(
1'
#1877000000
1(
#1883000000
0(
0'
1&
#1889000000
1(
#1895000000
1'
0$
1%
#1901000000
0%
1$
0'
0(
0&
#1907000000
1(
#1913000000
0(
1'
#1919000000
1(
#1925000000
0(
0'
1&
#1931000000
1(
#1937000000
1'
0$
1%
#1943000000
0%
1$
0'
0(
0&
#1949000000
1(
#1955000000
0(
1'
#1961000000
1(
#1967000000
0(
0'
1&
#1973000000
1(
#1979000000
0(
1'
#1985000000
1(
#1991000000
0(
0'
0&
1%
#1997000000
1(
#2001000000
1X
#2003000000
0(
1'
#2009000000
1(
#2015000000
0(
0'
1&
#2021000000
1(
#2025000000
18
17
#2027000000
0(
1'
#2033000000
1(
#2039000000
1#
0'
0&
0$
0%
#2045000000
1%
0(
1'
0#
#2051000000
1(
#2057000000
0(
0'
1&
#2063000000
1(
#2067000000
1H
#2069000000
0(
1'
#2075000000
1(
#2081000000
0(
0%
0'
1$
0&
#2087000000
1(
#2093000000
0(
1'
#2099000000
1(
#2105000000
0(
1&
0'
#2111000000
1(
#2117000000
1'
1%
0$
#2123000000
1$
0(
0%
0&
0'
#2129000000
1(
#2135000000
0(
1'
#2141000000
1(
#2147000000
0(
0'
1&
#2153000000
1(
#2159000000
0$
1'
1%
#2165000000
0%
0(
0'
0&
1$
#2171000000
1(
#2177000000
0(
1'
#2183000000
1(
#2189000000
0(
0'
1&
#2195000000
1(
#2201000000
1%
1'
0$
#2207000000
1$
0(
0'
0&
0%
#2213000000
1(
#2219000000
0(
1'
#2225000000
1(
#2231000000
0(
0'
1&
#2237000000
1(
#2243000000
0$
1'
1%
#2249000000
0%
0(
0'
0&
1$
#2255000000
1(
#2261000000
0(
1'
#2267000000
1(
#2273000000
0(
0'
1&
#2279000000
1(
#2285000000
1%
1'
0$
#2291000000
1$
0(
0'
0&
0%
#2297000000
1(
#2303000000
0(
1'
#2309000000
1(
#2315000000
0(
0'
1&
#2321000000
1(
#2327000000
0$
1'
1%
#2333000000
0%
0(
0'
0&
1$
#2339000000
1(
#2345000000
0(
1'
#2351000000
1(
#2357000000
0(
0'
1&
#2363000000
1(
#2369000000
1%
1'
0$
#2375000000
1$
0(
0'
0&
0%
#2381000000
1(
#2387000000
0(
1'
#2393000000
1(
#2399000000
0(
0'
1&
#2405000000
1(
#2411000000
0$
1'
1%
#2417000000
0%
0(
0'
0&
1$
#2423000000
1(
#2429000000
0(
1'
#2435000000
1(
#2441000000
0(
0'
1&
#2447000000
1(
#2453000000
1%
1'
0$
#2459000000
1$
0(
0'
0&
0%
#2465000000
1(
#2471000000
0(
1'
#2477000000
1(
#2483000000
0(
0'
1&
#2489000000
1(
#2495000000
0(
1'
#2501000000
1(
#2507000000
0(
0'
0&
1%
#2513000000
1(
#2517000000
0W
0X
1V
#2519000000
0(
1'
#2525000000
1(
#2531000000
0(
0'
1&
#2537000000
1(
#2541000000
07
08
#2543000000
0(
1'
#2549000000
1(
#2555000000
0(
0$
0'
0&
0%
1#
#2561000000
0#
1&
1'
1$
#2567000000
1(
#2573000000
0(
0'
0&
1%
#2579000000
1(
#2583000000
1X
#2585000000
0(
1'
#2591000000
1(
#2597000000
0(
0'
1&
#2603000000
1(
#2607000000
18
16
#2609000000
0(
1'
#2615000000
1(
#2621000000
0$
0'
0&
1#
0%
#2627000000
1%
0(
0#
1'
#2633000000
1(
#2639000000
0(
0'
1&
#2645000000
1(
#2649000000
0G
1F
#2651000000
0(
1'
#2657000000
1(
#2663000000
0(
0%
0'
1$
0&
#2669000000
1(
#2675000000
0(
1'
#2681000000
1(
#2687000000
0(
1&
0'
#2693000000
1(
#2699000000
1'
1%
0$
#2705000000
1$
0(
0%
0&
0'
#2711000000
1(
#2717000000
0(
1'
#2723000000
1(
#2729000000
0(
0'
1&
#2735000000
1(
#2741000000
0$
1'
1%
#2747000000
0%
0(
0'
0&
1$
#2753000000
1(
#2759000000
0(
1'
#2765000000
1(
#2771000000
0(
0'
1&
#2777000000
1(
#2783000000
1%
1'
0$
#2789000000
1$
0(
0'
0&
0%
#2795000000
1(
#2801000000
0(
1'
#2807000000
1(
#2813000000
0(
0'
1&
#2819000000
1(
#2825000000
0$
1'
1%
#2831000000
0%
0(
0'
0&
1$
#2837000000
1(
#2843000000
0(
1'
#2849000000
1(
#2855000000
0(
0'
1&
#2861000000
1(
#2867000000
1%
1'
0$
#2873000000
1$
0(
0'
0&
0%
#2879000000
1(
#2885000000
0(
1'
#2891000000
1(
#2897000000
0(
0'
1&
#2903000000
1(
#2909000000
0(
1'
#2915000000
1(
#2921000000
0(
0'
0&
1%
#2927000000
1(
#2931000000
0X
1W
#2933000000
0(
1'
#2939000000
1(
#2945000000
0(
0'
1&
#2951000000
1(
#2955000000
06
08
#2957000000
0(
1'
#2963000000
1(
#2969000000
0(
0$
0'
0&
0%
1#
#2975000000
0#
1&
1'
1$
#2981000000
1(
#2987000000
0(
0'
0&
1%
#2993000000
1(
#2997000000
1X
#2999000000
0(
1'
#3005000000
1(
#3011000000
0(
0'
1&
#3017000000
1(
#3021000000
18
16
17
#3023000000
0(
1'
#3029000000
1(
#3035000000
0$
0'
0&
1#
0%
#3041000000
1%
0(
0#
1'
#3047000000
1(
#3053000000
0(
0'
1&
#3059000000
1(
#3063000000
1G
#3065000000
0(
1'
#3071000000
1(
#3077000000
0(
0%
0'
1$
0&
#3083000000
1(
#3089000000
0(
1'
#3095000000
1(
#3101000000
0(
1&
0'
#3107000000
1(
#3113000000
1'
1%
0$
#3119000000
1$
0(
0%
0&
0'
#3125000000
1(
#3131000000
0(
1'
#3137000000
1(
#3143000000
0(
0'
1&
#3149000000
1(
#3155000000
0$
1'
1%
#3161000000
0%
0(
0'
0&
1$
#3167000000
1(
#3173000000
0(
1'
#3179000000
1(
#3185000000
0(
0'
1&
#3191000000
1(
#3197000000
1%
1'
0$
#3203000000
1$
0(
0'
0&
0%
#3209000000
1(
#3215000000
0(
1'
#3221000000
1(
#3227000000
0(
0'
1&
#3233000000
1(
#3239000000
0(
1'
#3245000000
1(
#3251000000
0(
0'
0&
1%
#3257000000
1(
#3261000000
0V
1U
0X
0W
#3263000000
0(
1'
#3269000000
1(
#3275000000
0(
0'
1&
#3281000000
1(
#3285000000
07
08
06
#3287000000
0(
1'
#3293000000
1(
#3299000000
0(
0$
0'
0&
1#
0%
#3305000000
0#
1&
1'
1$
#3311000000
1(
#3317000000
0(
0'
0&
1%
#3323000000
1(
#3327000000
1X
#3329000000
0(
1'
#3335000000
1(
#3341000000
0(
0'
1&
#3347000000
1(
#3353000000
0(
1'
#3359000000
1(
#3365000000
0(
0$
0'
0&
1#
0%
#3371000000
0#
1'
1$
1&
#3377000000
1(
#3383000000
0(
0&
1%
0'
#3389000000
1(
#3393000000
1W
0X
#3395000000
0(
1'
#3401000000
1(
#3407000000
0(
0'
1&
#3413000000
1(
#3419000000
0(
1'
#3425000000
1(
#3431000000
0(
0&
0'
0%
0$
1#
#3437000000
0#
1$
1'
1&
#3443000000
1(
#3449000000
0(
0&
0'
1%
#3455000000
1(
#3459000000
1X
#3461000000
0(
1'
#3467000000
1(
#3473000000
0(
0'
1&
#3479000000
1(
#3483000000
15
18
17
#3485000000
0(
1'
#3491000000
1(
#3497000000
0%
0'
0&
0$
1#
#3503000000
0#
0(
1'
1%
#3509000000
1(
#3515000000
0(
0'
1&
#3521000000
1(
#3525000000
0F
1E
#3527000000
0(
1'
#3533000000
1(
#3539000000
0(
0'
0&
0%
1$
#3545000000
1(
#3551000000
0(
1'
#3557000000
1(
#3563000000
0(
0'
1&
#3569000000
1(
#3575000000
1'
0$
1%
#3581000000
0%
1$
0'
0(
0&
#3587000000
1(
#3593000000
0(
1'
#3599000000
1(
#3605000000
0(
0'
1&
#3611000000
1(
#3617000000
0(
1'
#3623000000
1(
#3629000000
0(
0'
0&
1%
#3635000000
1(
#3639000000
0X
1V
0W
#3641000000
0(
1'
#3647000000
1(
#3653000000
0(
0'
1&
#3659000000
1(
#3663000000
07
05
08
#3665000000
0(
1'
#3671000000
1(
#3677000000
0(
1#
0'
0&
0%
0$
#3683000000
1$
1&
1'
0#
#3689000000
1(
#3695000000
0(
0'
0&
1%
#3701000000
1(
#3705000000
1X
#3707000000
0(
1'
#3713000000
1(
#3719000000
0(
0'
1&
#3725000000
1(
#3729000000
16
18
15
#3731000000
0(
1'
#3737000000
1(
#3743000000
1#
0'
0&
0$
0%
#3749000000
1%
0(
1'
0#
#3755000000
1(
#3761000000
0(
0'
1&
#3767000000
1(
#3771000000
0G
1F
#3773000000
0(
1'
#3779000000
1(
#3785000000
0(
0%
0'
1$
0&
#3791000000
1(
#3797000000
0(
1'
#3803000000
1(
#3809000000
0(
1&
0'
#3815000000
1(
#3821000000
1'
1%
0$
#3827000000
1$
0(
0%
0&
0'
#3833000000
1(
#3839000000
0(
1'
#3845000000
1(
#3851000000
0(
0'
1&
#3857000000
1(
#3863000000
0(
1'
#3869000000
1(
#3875000000
0(
0'
0&
1%
#3881000000
1(
#3885000000
1W
0X
#3887000000
0(
1'
#3893000000
1(
#3899000000
0(
0'
1&
#3905000000
1(
#3909000000
05
08
06
#3911000000
0(
1'
#3917000000
1(
#3923000000
0(
0$
0'
0&
0%
1#
#3929000000
0#
1&
1'
1$
#3935000000
1(
#3941000000
0(
0'
0&
1%
#3947000000
1(
#3951000000
1X
#3953000000
0(
1'
#3959000000
1(
#3965000000
0(
0'
1&
#3971000000
1(
#3977000000
0(
1'
#3983000000
1(
#3989000000
0(
0$
0'
0&
0%
1#
#3995000000
0#
1&
1'
1$
#4001000000
1(
#4007000000
0(
0'
0&
1%
#4013000000
1(
#4017000000
0X
0V
0W
0U
1T
#4019000000
0(
1'
#4025000000
1(
#4031000000
0(
0'
1&
#4037000000
1(
#4043000000
0(
1'
#4049000000
1(
#4055000000
0(
0$
0'
0&
0%
1#
#4061000000
0#
1&
1'
1$
#4067000000
1(
#4073000000
0(
0'
0&
1%
#4079000000
1(
#4083000000
1X
#4085000000
0(
1'
#4091000000
1(
#4097000000
0(
0'
1&
#4103000000
1(
#4107000000
18
14
#4109000000
0(
1'
#4115000000
1(
#4121000000
0$
0'
0&
1#
0%
#4127000000
1%
0(
0#
1'
#4133000000
1(
#4139000000
0(
0'
1&
#4145000000
1(
#4149000000
0E
1D
0F
#4151000000
0(
1'
#4157000000
1(
#4163000000
0(
0%
0'
1$
0&
#4169000000
1(
#4175000000
0(
1'
#4181000000
1(
#4187000000
0(
1&
0'
#4193000000
1(
#4199000000
0(
1'
#4205000000
1(
#4211000000
0(
0'
0&
1%
#4217000000
1(
#4221000000
0X
1W
#4223000000
1'
0(
#4229000000
1(
#4235000000
0(
0'
1&
#4241000000
1(
#4245000000
04
08
#4247000000
0(
1'
#4253000000
1(
#4259000000
0(
0%
0'
0&
1#
0$
#4265000000
1$
0#
1'
1&
#4271000000
1(
#4277000000
0(
0&
0'
1%
#4283000000
1(
#4287000000
1X
#4289000000
0(
1'
#4295000000
1(
#4301000000
0(
0'
1&
#4307000000
1(
#4311000000
18
14
17
#4313000000
0(
1'
#4319000000
1(
#4325000000
0%
0'
0&
0$
1#
#4331000000
0#
0(
1'
1%
#4337000000
1(
#4343000000
0(
0'
1&
#4349000000
1(
#4353000000
1G
#4355000000
0(
1'
#4361000000
1(
#4367000000
0(
0'
0%
1$
0&
#4373000000
1(
#4379000000
0(
1'
#4385000000
1(
#4391000000
0(
0'
1&
#4397000000
1(
#4403000000
0(
1'
#4409000000
1(
#4415000000
0(
0'
0&
1%
#4421000000
1(
#4425000000
0X
0W
1V
#4427000000
0(
1'
#4433000000
1(
#4439000000
0(
0'
1&
#4445000000
1(
#4449000000
04
07
08
#4451000000
0(
1'
#4457000000
1(
#4463000000
0(
1#
0'
0&
0%
0$
#4469000000
1$
1&
1'
0#
#4475000000
1(
#4481000000
0(
0'
0&
1%
#4487000000
1(
#4491000000
1X
#4493000000
0(
1'
#4499000000
1(
#4505000000
0(
0'
1&
#4511000000
1(
#4517000000
0(
1'
#4523000000
1(
#4529000000
0(
1#
0'
0&
0$
0%
#4535000000
1$
1'
0#
1&
#4541000000
1(
#4547000000
0(
0&
1%
0'
#4553000000
1(
#4557000000
0X
1W
#4559000000
1'
0(
#4565000000
1(
#4571000000
0(
0'
1&
#4577000000
1(
#4583000000
0(
1'
#4589000000
1(
#4595000000
0(
0'
0%
1#
0$
0&
#4601000000
1&
1$
1'
0#
#4607000000
1(
#4613000000
0(
0'
0&
1%
#4619000000
1(
#4623000000
1X
#4625000000
0(
1'
#4631000000
1(
#4637000000
0(
0'
1&
#4643000000
1(
#4647000000
16
18
17
14
#4649000000
0(
1'
#4655000000
1(
#4661000000
0'
0&
1#
0%
0$
#4667000000
1%
1'
0(
0#
#4673000000
1(
#4679000000
0(
0'
1&
#4685000000
1(
#4689000000
1F
#4691000000
0(
1'
#4697000000
1(
#4703000000
0(
0'
0%
1$
0&
#4709000000
1(
#4715000000
0(
1'
#4721000000
1(
#4727000000
0(
0'
1&
#4733000000
1(
#4739000000
0(
1'
#4745000000
1(
#4751000000
0(
0'
0&
1%
#4757000000
1(
#4761000000
0W
1U
0X
0V
#4763000000
0(
1'
#4769000000
1(
#4775000000
0(
0'
1&
#4781000000
1(
#4785000000
04
07
08
06
#4787000000
0(
1'
#4793000000
1(
#4799000000
0(
0'
0&
0$
0%
1#
#4805000000
0#
1&
1'
1$
#4811000000
1(
#4817000000
0(
0'
1%
0&
#4823000000
1(
#4827000000
1X
#4829000000
0(
1'
#4835000000
1(
#4841000000
0(
0'
1&
#4847000000
1(
#4853000000
0(
1'
#4859000000
1(
#4865000000
0(
0'
0%
0$
1#
0&
#4871000000
1&
0#
1'
1$
#4877000000
1(
#4883000000
0(
0'
0&
1%
#4889000000
1(
#4893000000
1W
0X
#4895000000
1'
0(
#4901000000
1(
#4907000000
0(
0'
1&
#4913000000
1(
#4919000000
0(
1'
#4925000000
1(
#4931000000
0(
0'
0&
0%
0$
1#
#4937000000
0#
1$
1&
1'
#4943000000
1(
#4949000000
0(
0'
0&
1%
#4955000000
1(
#4959000000
1X
#4961000000
0(
1'
#4967000000
1(
#4973000000
0(
0'
1&
#4979000000
1(
#4985000000
0(
1'
#4991000000
1(
#4997000000
0(
0'
0&
0$
1#
0%
#5003000000
0#
1&
1'
1$
#5009000000
1(
#5015000000
0(
0'
1%
0&
#5021000000
1(
#5025000000
1V
0W
0X
#5027000000
0(
1'
#5033000000
1(
#5039000000
0(
0'
1&
#5045000000
1(
#5051000000
0(
1'
#5057000000
1(
#5063000000
0(
0'
0&
0%
0$
1#
#5069000000
0#
1$
1&
1'
#5075000000
1(
#5081000000
0(
0'
0&
1%
#5087000000
1(
#5091000000
1X
#5093000000
0(
1'
#5099000000
1(
#5105000000
0(
0'
1&
#5111000000
1(
#5115000000
16
18
14
15
#5117000000
0(
1'
#5123000000
1(
#5129000000
0'
0&
0%
1#
0$
#5135000000
0#
1%
0(
1'
#5141000000
1(
#5147000000
0(
0'
1&
#5153000000
1(
#5157000000
1E
0G
#5159000000
0(
1'
#5165000000
1(
#5171000000
0(
0'
0&
0%
1$
#5177000000
1(
#5183000000
0(
1'
#5189000000
1(
#5195000000
0(
0'
1&
#5201000000
1(
#5207000000
0(
1'
#5213000000
1(
#5219000000
0(
0'
0&
1%
#5225000000
1(
#5229000000
0X
1W
#5231000000
0(
1'
#5237000000
1(
#5243000000
0(
0'
1&
#5249000000
1(
#5253000000
04
05
06
08
#5255000000
0(
1'
#5261000000
1(
#5267000000
0(
0'
0&
1#
0$
0%
#5273000000
1$
1&
1'
0#
#5279000000
1(
#5285000000
0(
0'
1%
0&
#5291000000
1(
#5295000000
1X
#5297000000
0(
1'
#5303000000
1(
#5309000000
0(
0'
1&
#5315000000
1(
#5319000000
18
16
17
15
14
#5321000000
0(
1'
#5327000000
1(
#5333000000
0'
0&
0%
1#
0$
#5339000000
0#
1%
0(
1'
#5345000000
1(
#5351000000
0(
0'
1&
#5357000000
1(
#5361000000
1G
#5363000000
0(
1'
#5369000000
1(
#5375000000
0(
0'
0&
0%
1$
#5381000000
1(
#5387000000
0(
1'
#5393000000
1(
#5399000000
0(
0'
1&
#5405000000
1(
#5411000000
0(
1'
#5417000000
1(
#5423000000
0(
0'
0&
1%
#5429000000
1(
#5433000000
0T
0W
1S
0X
0V
0U
#5435000000
0(
1'
#5441000000
1(
#5447000000
0(
0'
1&
#5453000000
1(
#5457000000
04
07
05
06
08
#5459000000
0(
1'
#5465000000
1(
#5471000000
0(
0'
0&
0%
1#
0$
#5477000000
1$
0#
1&
1'
#5483000000
1(
#5489000000
0(
0'
0&
1%
#5495000000
1(
#5499000000
1X
#5501000000
0(
1'
#5507000000
1(
#5513000000
0(
0'
1&
#5519000000
1(
#5525000000
0(
1'
#5531000000
1(
#5537000000
0(
0'
0&
0$
1#
0%
#5543000000
0#
1&
1'
1$
#5549000000
1(
#5555000000
0(
0'
1%
0&
#5561000000
1(
#5565000000
0X
1W
#5567000000
0(
1'
#5573000000
1(
#5579000000
0(
0'
1&
#5585000000
1(
#5591000000
0(
1'
#5597000000
1(
#5603000000
0(
0'
0&
0%
0$
1#
#5609000000
0#
1$
1&
1'
#5615000000
1(
#5621000000
0(
0'
0&
1%
#5627000000
1(
#5631000000
1X
#5633000000
0(
1'
#5639000000
1(
#5645000000
0(
0'
1&
#5651000000
1(
#5657000000
0(
1'
#5663000000
1(
#5669000000
0(
0'
0&
1#
0$
0%
#5675000000
1$
1&
1'
0#
#5681000000
1(
#5687000000
0(
0'
1%
0&
#5693000000
1(
#5697000000
0X
1V
0W
#5699000000
0(
1'
#5705000000
1(
#5711000000
0(
0'
1&
#5717000000
1(
#5721000000
u8
u-
u0
u2
u1
u3
u6
u5
u7
u4
u/
u,
u*
u)
u.
u+
#5723000000
0(
1'
#5729000000
1(
#5735000000
0(
0'
1#
0&
0$
0%
#5741000000
1$
1&
0#
1'
#5747000000
1(
#5753000000
0(
0'
0&
1%
#5759000000
1(
#5763000000
1X
#5765000000
0(
1'
#5771000000
1(
#5777000000
0(
0'
1&
#5783000000
1(
#5789000000
0(
1'
#5795000000
1(
#5801000000
0(
0'
0&
1#
0$
0%
#5807000000
1$
1&
1'
0#
#5813000000
1(
#5819000000
0(
0'
1%
0&
#5825000000
1(
#5829000000
0X
1W
#5831000000
0(
1'
#5837000000
1(
#5843000000
0(
0'
1&
#5849000000
1(
#5853000000
0+
07
02
00
0-
08
05
06
01
03
0,
0.
0/
04
0)
0*
#5855000000
0(
1'
#5861000000
1(
#5867000000
0(
0'
0%
0&
1#
0$
#5873000000
1$
0#
1&
1'
#5879000000
1(
#5885000000
0(
0'
0&
1%
#5891000000
1(
#5895000000
1X
#5897000000
0(
1'
#5903000000
1(
#5909000000
0(
0'
1&
#5915000000
1(
#5921000000
0(
1'
#5927000000
1(
#5933000000
0(
0'
0&
1#
0$
0%
#5939000000
1$
1&
1'
0#
#5945000000
1(
#5951000000
0(
0'
1%
0&
#5957000000
1(
#5961000000
1U
0X
0V
0W
#5963000000
0(
1'
#5969000000
1(
#5975000000
0(
0'
1&
#5981000000
1(
#5985000000
u*
u1
u0
u2
u7
u+
u6
u5
u-
u8
u.
u)
u,
u3
u4
u/
#5987000000
0(
1'
#5993000000
1(
#5999000000
0(
0'
0%
0&
1#
0$
#6005000000
1$
0#
1&
1'
#6011000000
1(
#6017000000
0(
0'
0&
1%
#6023000000
1(
#6027000000
1X
#6029000000
0(
1'
#6035000000
1(
#6041000000
0(
0'
1&
#6047000000
1(
#6053000000
0(
1'
#6059000000
1(
#6065000000
0(
0'
0&
1#
0$
0%
#6071000000
1$
1&
1'
0#
#6077000000
1(
#6083000000
0(
0'
1%
0&
#6089000000
1(
#6093000000
1W
0X
#6095000000
0(
1'
#6101000000
1(
#6107000000
0(
0'
1&
#6113000000
1(
#6119000000
0(
1'
#6125000000
1(
#6131000000
0(
0'
0&
0%
1#
0$
#6137000000
1$
0#
1&
1'
#6143000000
1(
#6149000000
0(
0'
0&
1%
#6155000000
1(
#6159000000
1X
#6161000000
0(
1'
#6167000000
1(
